%YAML 1.1
%TAG !u! tag:unity3d.com,2011:
--- !u!74 &7400000
AnimationClip:
  m_ObjectHideFlags: 0
  m_CorrespondingSourceObject: {fileID: 0}
  m_PrefabInstance: {fileID: 0}
  m_PrefabAsset: {fileID: 0}
  m_Name: FichaAmarrilla_Destroy
  serializedVersion: 6
  m_Legacy: 0
  m_Compressed: 0
  m_UseHighQualityCurve: 1
  m_RotationCurves: []
  m_CompressedRotationCurves: []
  m_EulerCurves: []
  m_PositionCurves: []
  m_ScaleCurves: []
  m_FloatCurves: []
  m_PPtrCurves:
  - curve:
    - time: 0
      value: {fileID: -2093992724, guid: d0e9943ccb25bf4459ca5d6fde62cd71, type: 3}
    - time: 0.016666668
      value: {fileID: -2062678763, guid: d0e9943ccb25bf4459ca5d6fde62cd71, type: 3}
    - time: 0.033333335
      value: {fileID: 38288582, guid: d0e9943ccb25bf4459ca5d6fde62cd71, type: 3}
    - time: 0.05
      value: {fileID: -148345252, guid: d0e9943ccb25bf4459ca5d6fde62cd71, type: 3}
    - time: 0.06666667
      value: {fileID: 592707926, guid: d0e9943ccb25bf4459ca5d6fde62cd71, type: 3}
    - time: 0.083333336
      value: {fileID: 650466852, guid: d0e9943ccb25bf4459ca5d6fde62cd71, type: 3}
    - time: 0.1
      value: {fileID: 1818784031, guid: d0e9943ccb25bf4459ca5d6fde62cd71, type: 3}
    - time: 0.11666667
      value: {fileID: 1921056078, guid: d0e9943ccb25bf4459ca5d6fde62cd71, type: 3}
    - time: 0.13333334
      value: {fileID: 2125386997, guid: d0e9943ccb25bf4459ca5d6fde62cd71, type: 3}
    - time: 0.15
      value: {fileID: 465917637, guid: d0e9943ccb25bf4459ca5d6fde62cd71, type: 3}
    - time: 0.16666667
      value: {fileID: 453999075, guid: d0e9943ccb25bf4459ca5d6fde62cd71, type: 3}
    - time: 0.18333334
      value: {fileID: -1569110417, guid: d0e9943ccb25bf4459ca5d6fde62cd71, type: 3}
    - time: 0.2
      value: {fileID: -1211780318, guid: d0e9943ccb25bf4459ca5d6fde62cd71, type: 3}
    - time: 0.21666667
      value: {fileID: -1696275836, guid: d0e9943ccb25bf4459ca5d6fde62cd71, type: 3}
    - time: 0.23333333
      value: {fileID: 1095575582, guid: d0e9943ccb25bf4459ca5d6fde62cd71, type: 3}
    - time: 0.25
      value: {fileID: -951922715, guid: d0e9943ccb25bf4459ca5d6fde62cd71, type: 3}
    - time: 0.26666668
      value: {fileID: -926094412, guid: d0e9943ccb25bf4459ca5d6fde62cd71, type: 3}
    - time: 0.28333333
      value: {fileID: -1601467177, guid: d0e9943ccb25bf4459ca5d6fde62cd71, type: 3}
    - time: 0.3
      value: {fileID: -1875751386, guid: d0e9943ccb25bf4459ca5d6fde62cd71, type: 3}
    - time: 0.31666666
      value: {fileID: 1216339370, guid: d0e9943ccb25bf4459ca5d6fde62cd71, type: 3}
    - time: 0.33333334
      value: {fileID: -1664030338, guid: d0e9943ccb25bf4459ca5d6fde62cd71, type: 3}
    - time: 0.35
      value: {fileID: 870375726, guid: d0e9943ccb25bf4459ca5d6fde62cd71, type: 3}
    - time: 0.36666667
      value: {fileID: 34518723, guid: d0e9943ccb25bf4459ca5d6fde62cd71, type: 3}
    - time: 0.38333333
      value: {fileID: 1739815398, guid: d0e9943ccb25bf4459ca5d6fde62cd71, type: 3}
    - time: 0.4
      value: {fileID: -1122624105, guid: d0e9943ccb25bf4459ca5d6fde62cd71, type: 3}
    - time: 0.41666666
      value: {fileID: -1582448266, guid: d0e9943ccb25bf4459ca5d6fde62cd71, type: 3}
    - time: 0.43333334
      value: {fileID: -739264306, guid: d0e9943ccb25bf4459ca5d6fde62cd71, type: 3}
    - time: 0.45
      value: {fileID: -701174577, guid: d0e9943ccb25bf4459ca5d6fde62cd71, type: 3}
    - time: 0.46666667
      value: {fileID: -1760922779, guid: d0e9943ccb25bf4459ca5d6fde62cd71, type: 3}
    - time: 0.48333332
      value: {fileID: -1170559973, guid: d0e9943ccb25bf4459ca5d6fde62cd71, type: 3}
    - time: 0.5
      value: {fileID: -1151161428, guid: d0e9943ccb25bf4459ca5d6fde62cd71, type: 3}
    - time: 0.51666665
      value: {fileID: 444092951, guid: d0e9943ccb25bf4459ca5d6fde62cd71, type: 3}
    - time: 0.53333336
      value: {fileID: 352995194, guid: d0e9943ccb25bf4459ca5d6fde62cd71, type: 3}
    - time: 0.55
      value: {fileID: -1696439674, guid: d0e9943ccb25bf4459ca5d6fde62cd71, type: 3}
    - time: 0.56666666
      value: {fileID: -561185071, guid: d0e9943ccb25bf4459ca5d6fde62cd71, type: 3}
    - time: 0.5833333
      value: {fileID: -1991517395, guid: d0e9943ccb25bf4459ca5d6fde62cd71, type: 3}
    - time: 0.6
      value: {fileID: -456985509, guid: d0e9943ccb25bf4459ca5d6fde62cd71, type: 3}
    - time: 0.6166667
      value: {fileID: -1144773230, guid: d0e9943ccb25bf4459ca5d6fde62cd71, type: 3}
    - time: 0.6333333
      value: {fileID: 278481165, guid: d0e9943ccb25bf4459ca5d6fde62cd71, type: 3}
    - time: 0.65
      value: {fileID: -941860625, guid: d0e9943ccb25bf4459ca5d6fde62cd71, type: 3}
    - time: 0.6666667
      value: {fileID: -16241895, guid: d0e9943ccb25bf4459ca5d6fde62cd71, type: 3}
    - time: 0.68333334
      value: {fileID: -525666346, guid: d0e9943ccb25bf4459ca5d6fde62cd71, type: 3}
    - time: 0.7
      value: {fileID: 461264776, guid: d0e9943ccb25bf4459ca5d6fde62cd71, type: 3}
    - time: 0.71666664
      value: {fileID: -1285834044, guid: d0e9943ccb25bf4459ca5d6fde62cd71, type: 3}
    - time: 0.73333335
      value: {fileID: -1749838188, guid: d0e9943ccb25bf4459ca5d6fde62cd71, type: 3}
    - time: 0.75
      value: {fileID: -403497913, guid: d0e9943ccb25bf4459ca5d6fde62cd71, type: 3}
    - time: 0.76666665
      value: {fileID: -192227197, guid: d0e9943ccb25bf4459ca5d6fde62cd71, type: 3}
    - time: 0.78333336
      value: {fileID: 1087447289, guid: d0e9943ccb25bf4459ca5d6fde62cd71, type: 3}
    - time: 0.8
      value: {fileID: 337560561, guid: d0e9943ccb25bf4459ca5d6fde62cd71, type: 3}
    - time: 0.81666666
      value: {fileID: -1278521131, guid: d0e9943ccb25bf4459ca5d6fde62cd71, type: 3}
    - time: 0.8333333
      value: {fileID: -2113854483, guid: d0e9943ccb25bf4459ca5d6fde62cd71, type: 3}
    - time: 0.85
      value: {fileID: -1463686073, guid: d0e9943ccb25bf4459ca5d6fde62cd71, type: 3}
    - time: 0.8666667
      value: {fileID: -1694578249, guid: d0e9943ccb25bf4459ca5d6fde62cd71, type: 3}
    - time: 0.8833333
      value: {fileID: -1979184466, guid: d0e9943ccb25bf4459ca5d6fde62cd71, type: 3}
    - time: 0.9
      value: {fileID: -1453327761, guid: d0e9943ccb25bf4459ca5d6fde62cd71, type: 3}
    - time: 0.9166667
      value: {fileID: -585567587, guid: d0e9943ccb25bf4459ca5d6fde62cd71, type: 3}
    - time: 0.93333334
      value: {fileID: 1888381990, guid: d0e9943ccb25bf4459ca5d6fde62cd71, type: 3}
    - time: 0.95
      value: {fileID: -237064453, guid: d0e9943ccb25bf4459ca5d6fde62cd71, type: 3}
    - time: 0.96666664
      value: {fileID: -426013517, guid: d0e9943ccb25bf4459ca5d6fde62cd71, type: 3}
    - time: 0.98333335
      value: {fileID: -1614573493, guid: d0e9943ccb25bf4459ca5d6fde62cd71, type: 3}
    - time: 1
      value: {fileID: -613377576, guid: d0e9943ccb25bf4459ca5d6fde62cd71, type: 3}
    attribute: m_Sprite
    path: 
    classID: 212
    script: {fileID: 0}
  m_SampleRate: 60
  m_WrapMode: 0
  m_Bounds:
    m_Center: {x: 0, y: 0, z: 0}
    m_Extent: {x: 0, y: 0, z: 0}
  m_ClipBindingConstant:
    genericBindings:
    - serializedVersion: 2
      path: 0
      attribute: 0
      script: {fileID: 0}
      typeID: 212
      customType: 23
      isPPtrCurve: 1
    pptrCurveMapping:
    - {fileID: -2093992724, guid: d0e9943ccb25bf4459ca5d6fde62cd71, type: 3}
    - {fileID: -2062678763, guid: d0e9943ccb25bf4459ca5d6fde62cd71, type: 3}
    - {fileID: 38288582, guid: d0e9943ccb25bf4459ca5d6fde62cd71, type: 3}
    - {fileID: -148345252, guid: d0e9943ccb25bf4459ca5d6fde62cd71, type: 3}
    - {fileID: 592707926, guid: d0e9943ccb25bf4459ca5d6fde62cd71, type: 3}
    - {fileID: 650466852, guid: d0e9943ccb25bf4459ca5d6fde62cd71, type: 3}
    - {fileID: 1818784031, guid: d0e9943ccb25bf4459ca5d6fde62cd71, type: 3}
    - {fileID: 1921056078, guid: d0e9943ccb25bf4459ca5d6fde62cd71, type: 3}
    - {fileID: 2125386997, guid: d0e9943ccb25bf4459ca5d6fde62cd71, type: 3}
    - {fileID: 465917637, guid: d0e9943ccb25bf4459ca5d6fde62cd71, type: 3}
    - {fileID: 453999075, guid: d0e9943ccb25bf4459ca5d6fde62cd71, type: 3}
    - {fileID: -1569110417, guid: d0e9943ccb25bf4459ca5d6fde62cd71, type: 3}
    - {fileID: -1211780318, guid: d0e9943ccb25bf4459ca5d6fde62cd71, type: 3}
    - {fileID: -1696275836, guid: d0e9943ccb25bf4459ca5d6fde62cd71, type: 3}
    - {fileID: 1095575582, guid: d0e9943ccb25bf4459ca5d6fde62cd71, type: 3}
    - {fileID: -951922715, guid: d0e9943ccb25bf4459ca5d6fde62cd71, type: 3}
    - {fileID: -926094412, guid: d0e9943ccb25bf4459ca5d6fde62cd71, type: 3}
    - {fileID: -1601467177, guid: d0e9943ccb25bf4459ca5d6fde62cd71, type: 3}
    - {fileID: -1875751386, guid: d0e9943ccb25bf4459ca5d6fde62cd71, type: 3}
    - {fileID: 1216339370, guid: d0e9943ccb25bf4459ca5d6fde62cd71, type: 3}
    - {fileID: -1664030338, guid: d0e9943ccb25bf4459ca5d6fde62cd71, type: 3}
    - {fileID: 870375726, guid: d0e9943ccb25bf4459ca5d6fde62cd71, type: 3}
    - {fileID: 34518723, guid: d0e9943ccb25bf4459ca5d6fde62cd71, type: 3}
    - {fileID: 1739815398, guid: d0e9943ccb25bf4459ca5d6fde62cd71, type: 3}
    - {fileID: -1122624105, guid: d0e9943ccb25bf4459ca5d6fde62cd71, type: 3}
    - {fileID: -1582448266, guid: d0e9943ccb25bf4459ca5d6fde62cd71, type: 3}
    - {fileID: -739264306, guid: d0e9943ccb25bf4459ca5d6fde62cd71, type: 3}
    - {fileID: -701174577, guid: d0e9943ccb25bf4459ca5d6fde62cd71, type: 3}
    - {fileID: -1760922779, guid: d0e9943ccb25bf4459ca5d6fde62cd71, type: 3}
    - {fileID: -1170559973, guid: d0e9943ccb25bf4459ca5d6fde62cd71, type: 3}
    - {fileID: -1151161428, guid: d0e9943ccb25bf4459ca5d6fde62cd71, type: 3}
    - {fileID: 444092951, guid: d0e9943ccb25bf4459ca5d6fde62cd71, type: 3}
    - {fileID: 352995194, guid: d0e9943ccb25bf4459ca5d6fde62cd71, type: 3}
    - {fileID: -1696439674, guid: d0e9943ccb25bf4459ca5d6fde62cd71, type: 3}
    - {fileID: -561185071, guid: d0e9943ccb25bf4459ca5d6fde62cd71, type: 3}
    - {fileID: -1991517395, guid: d0e9943ccb25bf4459ca5d6fde62cd71, type: 3}
    - {fileID: -456985509, guid: d0e9943ccb25bf4459ca5d6fde62cd71, type: 3}
    - {fileID: -1144773230, guid: d0e9943ccb25bf4459ca5d6fde62cd71, type: 3}
    - {fileID: 278481165, guid: d0e9943ccb25bf4459ca5d6fde62cd71, type: 3}
    - {fileID: -941860625, guid: d0e9943ccb25bf4459ca5d6fde62cd71, type: 3}
    - {fileID: -16241895, guid: d0e9943ccb25bf4459ca5d6fde62cd71, type: 3}
    - {fileID: -525666346, guid: d0e9943ccb25bf4459ca5d6fde62cd71, type: 3}
    - {fileID: 461264776, guid: d0e9943ccb25bf4459ca5d6fde62cd71, type: 3}
    - {fileID: -1285834044, guid: d0e9943ccb25bf4459ca5d6fde62cd71, type: 3}
    - {fileID: -1749838188, guid: d0e9943ccb25bf4459ca5d6fde62cd71, type: 3}
    - {fileID: -403497913, guid: d0e9943ccb25bf4459ca5d6fde62cd71, type: 3}
    - {fileID: -192227197, guid: d0e9943ccb25bf4459ca5d6fde62cd71, type: 3}
    - {fileID: 1087447289, guid: d0e9943ccb25bf4459ca5d6fde62cd71, type: 3}
    - {fileID: 337560561, guid: d0e9943ccb25bf4459ca5d6fde62cd71, type: 3}
    - {fileID: -1278521131, guid: d0e9943ccb25bf4459ca5d6fde62cd71, type: 3}
    - {fileID: -2113854483, guid: d0e9943ccb25bf4459ca5d6fde62cd71, type: 3}
    - {fileID: -1463686073, guid: d0e9943ccb25bf4459ca5d6fde62cd71, type: 3}
    - {fileID: -1694578249, guid: d0e9943ccb25bf4459ca5d6fde62cd71, type: 3}
    - {fileID: -1979184466, guid: d0e9943ccb25bf4459ca5d6fde62cd71, type: 3}
    - {fileID: -1453327761, guid: d0e9943ccb25bf4459ca5d6fde62cd71, type: 3}
    - {fileID: -585567587, guid: d0e9943ccb25bf4459ca5d6fde62cd71, type: 3}
    - {fileID: 1888381990, guid: d0e9943ccb25bf4459ca5d6fde62cd71, type: 3}
    - {fileID: -237064453, guid: d0e9943ccb25bf4459ca5d6fde62cd71, type: 3}
    - {fileID: -426013517, guid: d0e9943ccb25bf4459ca5d6fde62cd71, type: 3}
    - {fileID: -1614573493, guid: d0e9943ccb25bf4459ca5d6fde62cd71, type: 3}
    - {fileID: -613377576, guid: d0e9943ccb25bf4459ca5d6fde62cd71, type: 3}
  m_AnimationClipSettings:
    serializedVersion: 2
    m_AdditiveReferencePoseClip: {fileID: 0}
    m_AdditiveReferencePoseTime: 0
    m_StartTime: 0
    m_StopTime: 1.0166667
    m_OrientationOffsetY: 0
    m_Level: 0
    m_CycleOffset: 0
    m_HasAdditiveReferencePose: 0
    m_LoopTime: 1
    m_LoopBlend: 0
    m_LoopBlendOrientation: 0
    m_LoopBlendPositionY: 0
    m_LoopBlendPositionXZ: 0
    m_KeepOriginalOrientation: 0
    m_KeepOriginalPositionY: 1
    m_KeepOriginalPositionXZ: 0
    m_HeightFromFeet: 0
    m_Mirror: 0
  m_EditorCurves: []
  m_EulerEditorCurves: []
  m_HasGenericRootTransform: 0
  m_HasMotionFloatCurves: 0
  m_Events: []
